{
    "users": "Users of KDE Identity",
    "sysadmins": "KDE Sysadmins",
    "disabled-developers": "Disabled KDE Developers",
    "developers": "KDE Developers",
    "ev-members": "Members of the KDE e.V",
    "ev-board": "KDE e.V Board",
    "kde-in-maintainers": "Maintainers of the kde.in websites",
    "ev-active": "Active members of the KDE e.V.",
    "akademy-team": "Members of the Akademy Team",
    "season-admins": "Administrators of season.kde.org",
    "jointhegame-members": "Members of the KDE Join the Game program",
    "kstars-developers": "Developers of KStars",
    "quarterly-reports": "e.V. Quarterly Reports Access Group",
    "ktp-developers": "Developers of KDE-Telepathy",
    "kde-brazil-members": "KDE Brazil Members",
    "cwg-members": "Community Working Group Members",
    "ev-hiring": "Members of the KDE e.V Hiring Committee",
    "stats-access": "People with access to stats.kde.org",
    "visual-design": "Members of the Visual Design Group",
    "mail-senders": "Members of this group can send email through postbox.kde.org",
    "qtcon-team": "Qt Conference Organizational Team",
    "kubuntu-artwork": "Maintainers of Kubuntu Artwork",
    "kde-espana-board": "Board Members of KDE España",
    "share-access": "Individuals who can access to share.kde.org",
    "promo-team": "For those involved in promoting KDE",
    "automotive-team": "People working on Automotive initiatives"
}
